*<meta creator='lp_solve v5.5'>
*<meta rows=7>
*<meta columns=200>
*<meta equalities=1>
*<meta integers=199>
*<meta origsense='MIN'>
*
NAME                  
ROWS
 N  R0      
 G  X1      
 G  X2      
 G  X3      
 G  Y3      
 G  Y1      
 G  Y2      
 E  k1      
COLUMNS
    theta     R0        1.0000000000   X1        453132984.00
    theta     X2        1049211110.0   X3        1652229057.0
    MARK0000  'MARKER'                 'INTORG'
    lmbd1     X1        -22794708.00   X2        -136508327.0
    lmbd1     X3        -157364325.0   Y3        209976.00000
    lmbd1     Y1        15667569.000   Y2        8789333.0000
    lmbd1     k1        1.0000000000
    lmbd2     X1         -4184548095   X2         -4213176749
    lmbd2     X3         -6233536293   Y3        221058541.00
    lmbd2     Y1        717402532.00   Y2        632286730.00
    lmbd2     k1        1.0000000000
    lmbd3     X1        -282299954.0   X2         -1883318610
    lmbd3     X3         -2130539013   Y3        30387226.000
    lmbd3     Y1        384212337.00   Y2        301737112.00
    lmbd3     k1        1.0000000000
    lmbd4     X1        -453132984.0   X2         -1049211110
    lmbd4     X3         -1652229057   Y3        6212616.0000
    lmbd4     Y1        223888259.00   Y2        91133590.000
    lmbd4     k1        1.0000000000
    lmbd5     X1        -159119363.0   X2        -471953272.0
    lmbd5     X3        -628699329.0   Y3        4165605.0000
    lmbd5     Y1        95269236.000   Y2        53994054.000
    lmbd5     k1        1.0000000000
    lmbd6     X1        -266921911.0   X2        -541292663.0
    lmbd6     X3        -641151066.0   Y3        4061082.0000
    lmbd6     Y1        138049761.00   Y2        42808100.000
    lmbd6     k1        1.0000000000
    lmbd7     X1        -82240981.00   X2        -213848494.0
    lmbd7     X3        -262291583.0   Y3        4695466.0000
    lmbd7     Y1        54052292.000   Y2        36208419.000
    lmbd7     k1        1.0000000000
    lmbd8     X1        -197078700.0   X2        -348040842.0
    lmbd8     X3        -395124251.0   Y3        2693879.0000
    lmbd8     Y1        112976433.00   Y2        29424439.000
    lmbd8     k1        1.0000000000
    lmbd9     X1        -102656087.0   X2        -424810499.0
    lmbd9     X3        -484631606.0   Y3        4551402.0000
    lmbd9     Y1        82362674.000   Y2        28283056.000
    lmbd9     k1        1.0000000000
    lmbd10    X1        -25261211.00   X2        -163910173.0
    lmbd10    X3        -183133748.0   Y3        4644362.0000
    lmbd10    Y1        31589748.000   Y2        26855526.000
    lmbd10    k1        1.0000000000
    lmbd11    X1        -74148463.00   X2        -191632992.0
    lmbd11    X3        -249211165.0   Y3        6225750.0000
    lmbd11    Y1        35755186.000   Y2        24829951.000
    lmbd11    k1        1.0000000000
    lmbd12    X1        -164315998.0   X2        -286594702.0
    lmbd12    X3        -375092776.0   Y3        11652042.000
    lmbd12    Y1        84782436.000   Y2        24672476.000
    lmbd12    k1        1.0000000000
    lmbd13    X1        -86309801.00   X2        -122772040.0
    lmbd13    X3        -177892053.0   Y3        6918626.0000
    lmbd13    Y1        26221285.000   Y2        22275714.000
    lmbd13    k1        1.0000000000
    lmbd14    X1        -342130411.0   X2        -444805011.0
    lmbd14    X3        -511155120.0   Y3        6494121.0000
    lmbd14    Y1        54819904.000   Y2        22078214.000
    lmbd14    k1        1.0000000000
    lmbd15    X1        -191437126.0   X2        -364633747.0
    lmbd15    X3        -453980497.0   Y3        7539536.0000
    lmbd15    Y1        122864251.00   Y2        21796993.000
    lmbd15    k1        1.0000000000
    lmbd16    X1        -104998028.0   X2        -30874604.00
    lmbd16    X3        -146080837.0   Y3        1909155.0000
    lmbd16    Y1        30590354.000   Y2        21318722.000
    lmbd16    k1        1.0000000000
    lmbd17    X1        -146270673.0   X2        -280922026.0
    lmbd17    X3        -373074756.0   Y3        9242228.0000
    lmbd17    Y1        74791539.000   Y2        20992973.000
    lmbd17    k1        1.0000000000
    lmbd18    X1        -51656668.00   X2        -165465920.0
    lmbd18    X3        -171073657.0   Y3        4992538.0000
    lmbd18    Y1        48506282.000   Y2        20659707.000
    lmbd18    k1        1.0000000000
    lmbd19    X1        -11759868.00   X2        -30765960.00
    lmbd19    X3        -59149588.00   Y3        282346.00000
    lmbd19    Y1        4192215.0000   Y2        18429909.000
    lmbd19    k1        1.0000000000
    lmbd20    X1        -84726689.00   X2        -144314832.0
    lmbd20    X3        -181629216.0   Y3        4844852.0000
    lmbd20    Y1        32176786.000   Y2        17739386.000
    lmbd20    k1        1.0000000000
    lmbd21    X1        -24970262.00   X2        -141560144.0
    lmbd21    X3        -156140995.0   Y3        4964831.0000
    lmbd21    Y1        14555504.000   Y2        16444614.000
    lmbd21    k1        1.0000000000
    lmbd22    X1        -74715522.00   X2        -90161917.00
    lmbd22    X3        -114786341.0   Y3        3029174.0000
    lmbd22    Y1        20001453.000   Y2        14672613.000
    lmbd22    k1        1.0000000000
    lmbd23    X1        -30231972.00   X2        -83626109.00
    lmbd23    X3        -109428929.0   Y3        160867.00000
    lmbd23    Y1        35394506.000   Y2        14234524.000
    lmbd23    k1        1.0000000000
    lmbd24    X1        -69661989.00   X2        -118752805.0
    lmbd24    X3        -153702272.0   Y3        2769745.0000
    lmbd24    Y1        32470718.000   Y2        13535106.000
    lmbd24    k1        1.0000000000
    lmbd25    X1        -78031280.00   X2        -147893624.0
    lmbd25    X3        -175992464.0   Y3        1592305.0000
    lmbd25    Y1        63929398.000   Y2        13365575.000
    lmbd25    k1        1.0000000000
    lmbd26    X1        -36344767.00   X2        -85217585.00
    lmbd26    X3        -98421194.00   Y3        467410.00000
    lmbd26    Y1        22049354.000   Y2        12303509.000
    lmbd26    k1        1.0000000000
    lmbd27    X1        -8328065.000   X2        -71577377.00
    lmbd27    X3        -94844791.00   Y3        4871118.0000
    lmbd27    Y1        12610247.000   Y2        10365384.000
    lmbd27    k1        1.0000000000
    lmbd28    X1        -9152816.000   X2        -98071322.00
    lmbd28    X3        -115956234.0   Y3        864714.00000
    lmbd28    Y1        4119993.0000   Y2        10250343.000
    lmbd28    k1        1.0000000000
    lmbd29    X1        -29419235.00   X2        -50639290.00
    lmbd29    X3        -71005360.00   Y3        3677215.0000
    lmbd29    Y1        6740587.0000   Y2        9148745.0000
    lmbd29    k1        1.0000000000
    lmbd30    X1        -12663598.00   X2        -30862731.00
    lmbd30    X3        -39865655.00   Y3        2503524.0000
    lmbd30    Y1        3869786.0000   Y2        8820131.0000
    lmbd30    k1        1.0000000000
    lmbd31    X1        -45185829.00   X2        -35301821.00
    lmbd31    X3        -55937366.00   Y3        5364794.0000
    lmbd31    Y1        15381308.000   Y2        7913986.0000
    lmbd31    k1        1.0000000000
    lmbd32    X1        -38376195.00   X2        -26632001.00
    lmbd32    X3        -42038426.00   Y3        3243556.0000
    lmbd32    Y1        9754188.0000   Y2        7865651.0000
    lmbd32    k1        1.0000000000
    lmbd33    X1        -22915812.00   X2        -37815818.00
    lmbd33    X3        -29298151.00   Y3        1793544.0000
    lmbd33    Y1        26061656.000   Y2        7385275.0000
    lmbd33    k1        1.0000000000
    lmbd34    X1        -4267160.000   X2        -986568.0000
    lmbd34    X3        -5819018.000   Y3        256761.00000
    lmbd34    Y1        7661199.0000   Y2        6903652.0000
    lmbd34    k1        1.0000000000
    lmbd35    X1        -30211836.00   X2        -53009168.00
    lmbd35    X3        -67885348.00   Y3        2180410.0000
    lmbd35    Y1        11427290.000   Y2        6880566.0000
    lmbd35    k1        1.0000000000
    lmbd36    X1        -4017820.000   X2        -46376344.00
    lmbd36    X3        -61143488.00   Y3        692796.00000
    lmbd36    Y1        5663748.0000   Y2        6817061.0000
    lmbd36    k1        1.0000000000
    lmbd37    X1        -27350206.00   X2        -70854557.00
    lmbd37    X3        -96994574.00   Y3        804644.00000
    lmbd37    Y1        7263552.0000   Y2        6581064.0000
    lmbd37    k1        1.0000000000
    lmbd38    X1        -3653338.000   X2        -74336745.00
    lmbd38    X3        -80217712.00   Y3        108598.00000
    lmbd38    Y1        5393087.0000   Y2        6116039.0000
    lmbd38    k1        1.0000000000
    lmbd39    X1        -51343397.00   X2        -50599972.00
    lmbd39    X3        -71656472.00   Y3        693374.00000
    lmbd39    Y1        31554028.000   Y2        6040621.0000
    lmbd39    k1        1.0000000000
    lmbd40    X1        -32680388.00   X2        -23853386.00
    lmbd40    X3        -39500601.00   Y3        1226080.0000
    lmbd40    Y1        17506400.000   Y2        5936050.0000
    lmbd40    k1        1.0000000000
    lmbd41    X1        -48081806.00   X2        -157437926.0
    lmbd41    X3        -203437242.0   Y3        3177094.0000
    lmbd41    Y1        16132777.000   Y2        5842748.0000
    lmbd41    k1        1.0000000000
    lmbd42    X1        -26583174.00   X2        -40599017.00
    lmbd42    X3        -48431496.00   Y3        4667233.0000
    lmbd42    Y1        10441261.000   Y2        5714571.0000
    lmbd42    k1        1.0000000000
    lmbd43    X1        -95405062.00   X2        -690117803.0
    lmbd43    X3        -733262998.0   Y3        10963917.000
    lmbd43    Y1        94653619.000   Y2        5351603.0000
    lmbd43    k1        1.0000000000
    lmbd44    X1        -46576029.00   X2        -77603046.00
    lmbd44    X3        -104724710.0   Y3        4130077.0000
    lmbd44    Y1        15645811.000   Y2        5148410.0000
    lmbd44    k1        1.0000000000
    lmbd45    X1        -17192368.00   X2        -28243749.00
    lmbd45    X3        -42003065.00   Y3        333784.00000
    lmbd45    Y1        8070493.0000   Y2        5057093.0000
    lmbd45    k1        1.0000000000
    lmbd46    X1        -1132651.000   X2        -5355972.000
    lmbd46    X3        -13045636.00   Y3        255543.00000
    lmbd46    Y1        1729700.0000   Y2        4995457.0000
    lmbd46    k1        1.0000000000
    lmbd47    X1        -36881970.00   X2        -46598949.00
    lmbd47    X3        -61038792.00   Y3        1131669.0000
    lmbd47    Y1        12955927.000   Y2        4972129.0000
    lmbd47    k1        1.0000000000
    lmbd48    X1        -35115621.00   X2        -49156968.00
    lmbd48    X3        -74712534.00   Y3        917429.00000
    lmbd48    Y1        13519595.000   Y2        4964076.0000
    lmbd48    k1        1.0000000000
    lmbd49    X1        -18210568.00   X2        -25763001.00
    lmbd49    X3        -29982471.00   Y3        1674092.0000
    lmbd49    Y1        2682409.0000   Y2        4659838.0000
    lmbd49    k1        1.0000000000
    lmbd50    X1        -44967946.00   X2        -108054908.0
    lmbd50    X3        -132489103.0   Y3        1373677.0000
    lmbd50    Y1        28474459.000   Y2        4291213.0000
    lmbd50    k1        1.0000000000
    lmbd51    X1        -22659799.00   X2        -35909553.00
    lmbd51    X3        -45440922.00   Y3        413343.00000
    lmbd51    Y1        12790206.000   Y2        4080710.0000
    lmbd51    k1        1.0000000000
    lmbd52    X1        -33803456.00   X2        -185193601.0
    lmbd52    X3        -174514016.0   Y3        1411756.0000
    lmbd52    Y1        38118356.000   Y2        4073486.0000
    lmbd52    k1        1.0000000000
    lmbd53    X1        -18624920.00   X2        -27253773.00
    lmbd53    X3        -34320865.00   Y3        2497318.0000
    lmbd53    Y1        4536293.0000   Y2        4069752.0000
    lmbd53    k1        1.0000000000
    lmbd54    X1        -20487494.00   X2        -37830970.00
    lmbd54    X3        -36923541.00   Y3        2157582.0000
    lmbd54    Y1        13197743.000   Y2        3960337.0000
    lmbd54    k1        1.0000000000
    lmbd55    X1        -22399533.00   X2        -15391055.00
    lmbd55    X3        -32397108.00   Y3        2196504.0000
    lmbd55    Y1        8583065.0000   Y2        3927810.0000
    lmbd55    k1        1.0000000000
    lmbd56    X1        -17089355.00   X2        -9424401.000
    lmbd56    X3        -18033735.00   Y3        1218504.0000
    lmbd56    Y1        6166312.0000   Y2        3909339.0000
    lmbd56    k1        1.0000000000
    lmbd57    X1        -21059605.00   X2        -98162222.00
    lmbd57    X3        -171239775.0   Y3        160725.00000
    lmbd57    Y1        8192492.0000   Y2        3847721.0000
    lmbd57    k1        1.0000000000
    lmbd58    X1        -661851.0000   X2        -2780333.000
    lmbd58    X3        -7115170.000   Y3        10312.000000
    lmbd58    Y1        482828.00000   Y2        3705139.0000
    lmbd58    k1        1.0000000000
    lmbd59    X1        -546555.0000   X2        -1012746.000
    lmbd59    X3        -8399751.000   Y3        172553.00000
    lmbd59    Y1        183569.00000   Y2        3662238.0000
    lmbd59    k1        1.0000000000
    lmbd60    X1        -1449158.000   X2        -18903473.00
    lmbd60    X3        -27030116.00   Y3        428263.00000
    lmbd60    Y1        1611228.0000   Y2        3616562.0000
    lmbd60    k1        1.0000000000
    lmbd61    X1        -35603555.00   X2        -34372500.00
    lmbd61    X3        -37987728.00   Y3        2836584.0000
    lmbd61    Y1        14116818.000   Y2        3492670.0000
    lmbd61    k1        1.0000000000
    lmbd62    X1        -12593134.00   X2        -10071063.00
    lmbd62    X3        -23561102.00   Y3        44822.000000
    lmbd62    Y1        4559731.0000   Y2        3373633.0000
    lmbd62    k1        1.0000000000
    lmbd63    X1        -62845115.00   X2        -37263916.00
    lmbd63    X3        -85862416.00   Y3        439653.00000
    lmbd63    Y1        19689118.000   Y2        3136586.0000
    lmbd63    k1        1.0000000000
    lmbd64    X1        -13185556.00   X2        -27427392.00
    lmbd64    X3        -33434526.00   Y3        192788.00000
    lmbd64    Y1        6555168.0000   Y2        3102943.0000
    lmbd64    k1        1.0000000000
    lmbd65    X1        -13042227.00   X2        -17675793.00
    lmbd65    X3        -27151213.00   Y3        224144.00000
    lmbd65    Y1        6141230.0000   Y2        3100418.0000
    lmbd65    k1        1.0000000000
    lmbd66    X1        -24613871.00   X2        -30082012.00
    lmbd66    X3        -43709360.00   Y3        1669224.0000
    lmbd66    Y1        7637127.0000   Y2        3030292.0000
    lmbd66    k1        1.0000000000
    lmbd67    X1        -15272037.00   X2        -25662466.00
    lmbd67    X3        -33920669.00   Y3        429254.00000
    lmbd67    Y1        1566880.0000   Y2        2891318.0000
    lmbd67    k1        1.0000000000
    lmbd68    X1        -5533213.000   X2        -20574175.00
    lmbd68    X3        -27016257.00   Y3        304016.00000
    lmbd68    Y1        2466914.0000   Y2        2672653.0000
    lmbd68    k1        1.0000000000
    lmbd69    X1        -15479557.00   X2        -10829700.00
    lmbd69    X3        -19087574.00   Y3        1769330.0000
    lmbd69    Y1        2809935.0000   Y2        2671310.0000
    lmbd69    k1        1.0000000000
    lmbd70    X1        -10561813.00   X2        -8239538.000
    lmbd70    X3        -9025183.000   Y3        2470002.0000
    lmbd70    Y1        2863755.0000   Y2        2532472.0000
    lmbd70    k1        1.0000000000
    lmbd71    X1        -15089482.00   X2        -5412470.000
    lmbd71    X3        -14504902.00   Y3        991432.00000
    lmbd71    Y1        3824788.0000   Y2        2529584.0000
    lmbd71    k1        1.0000000000
    lmbd72    X1        -12111550.00   X2        -16952824.00
    lmbd72    X3        -21339567.00   Y3        580688.00000
    lmbd72    Y1        1224331.0000   Y2        2431640.0000
    lmbd72    k1        1.0000000000
    lmbd73    X1        -5313777.000   X2        -7256187.000
    lmbd73    X3        -11153033.00   Y3        323257.00000
    lmbd73    Y1        1931066.0000   Y2        2421922.0000
    lmbd73    k1        1.0000000000
    lmbd74    X1        -2750731.000   X2        -57183191.00
    lmbd74    X3        -63933722.00   Y3        150140.00000
    lmbd74    Y1        2330515.0000   Y2        2408690.0000
    lmbd74    k1        1.0000000000
    lmbd75    X1        -10463839.00   X2        -20430662.00
    lmbd75    X3        -25414873.00   Y3        738635.00000
    lmbd75    Y1        2004910.0000   Y2        2375451.0000
    lmbd75    k1        1.0000000000
    lmbd76    X1        -25867186.00   X2        -36297623.00
    lmbd76    X3        -40953401.00   Y3        2996332.0000
    lmbd76    Y1        5428412.0000   Y2        2344989.0000
    lmbd76    k1        1.0000000000
    lmbd77    X1        -7158213.000   X2        -9693475.000
    lmbd77    X3        -15543811.00   Y3        369041.00000
    lmbd77    Y1        2370185.0000   Y2        2338388.0000
    lmbd77    k1        1.0000000000
    lmbd78    X1        -20205390.00   X2        -43646011.00
    lmbd78    X3        -52765884.00   Y3        1633511.0000
    lmbd78    Y1        6330130.0000   Y2        2318020.0000
    lmbd78    k1        1.0000000000
    lmbd79    X1        -4891362.000   X2        -9388416.000
    lmbd79    X3        -21538911.00   Y3        298255.00000
    lmbd79    Y1        3718696.0000   Y2        2288468.0000
    lmbd79    k1        1.0000000000
    lmbd80    X1        -38231813.00   X2        -26515487.00
    lmbd80    X3        -34226362.00   Y3        1803953.0000
    lmbd80    Y1        12092080.000   Y2        2263223.0000
    lmbd80    k1        1.0000000000
    lmbd81    X1        -4689986.000   X2        -10274000.00
    lmbd81    X3        -13566360.00   Y3        1106180.0000
    lmbd81    Y1        1097329.0000   Y2        2231350.0000
    lmbd81    k1        1.0000000000
    lmbd82    X1        -29153824.00   X2        -39945777.00
    lmbd82    X3        -41194843.00   Y3        3087277.0000
    lmbd82    Y1        10204936.000   Y2        2153905.0000
    lmbd82    k1        1.0000000000
    lmbd83    X1        -21500255.00   X2        -24504660.00
    lmbd83    X3        -30195400.00   Y3        2862270.0000
    lmbd83    Y1        2678843.0000   Y2        2147084.0000
    lmbd83    k1        1.0000000000
    lmbd84    X1        -11631677.00   X2        -12215741.00
    lmbd84    X3        -16223511.00   Y3        840344.00000
    lmbd84    Y1        3542743.0000   Y2        2126357.0000
    lmbd84    k1        1.0000000000
    lmbd85    X1        -9101021.000   X2        -8236293.000
    lmbd85    X3        -11012213.00   Y3        1223324.0000
    lmbd85    Y1        2268725.0000   Y2        2126141.0000
    lmbd85    k1        1.0000000000
    lmbd86    X1        -2751814.000   X2        -3445770.000
    lmbd86    X3        -6013441.000   Y3        312169.00000
    lmbd86    Y1        2994117.0000   Y2        2003133.0000
    lmbd86    k1        1.0000000000
    lmbd87    X1        -14343141.00   X2        -7322406.000
    lmbd87    X3        -14619552.00   Y3        1639324.0000
    lmbd87    Y1        4610175.0000   Y2        1955694.0000
    lmbd87    k1        1.0000000000
    lmbd88    X1        -13196933.00   X2        -8513337.000
    lmbd88    X3        -18245953.00   Y3        1328929.0000
    lmbd88    Y1        8506128.0000   Y2        1931568.0000
    lmbd88    k1        1.0000000000
    lmbd89    X1        -4587446.000   X2        -3219660.000
    lmbd89    X3        -8339438.000   Y3        33949.000000
    lmbd89    Y1        2380993.0000   Y2        1899849.0000
    lmbd89    k1        1.0000000000
    lmbd90    X1        -9085927.000   X2        -8947879.000
    lmbd90    X3        -11288699.00   Y3        830685.00000
    lmbd90    Y1        2624221.0000   Y2        1895320.0000
    lmbd90    k1        1.0000000000
    lmbd91    X1        -11007722.00   X2        -11749321.00
    lmbd91    X3        -19402269.00   Y3        688997.00000
    lmbd91    Y1        4417178.0000   Y2        1855784.0000
    lmbd91    k1        1.0000000000
    lmbd92    X1        -16258760.00   X2        -9139420.000
    lmbd92    X3        -17828288.00   Y3        583046.00000
    lmbd92    Y1        3677565.0000   Y2        1853091.0000
    lmbd92    k1        1.0000000000
    lmbd93    X1        -17710249.00   X2        -19747324.00
    lmbd93    X3        -29057130.00   Y3        973821.00000
    lmbd93    Y1        3645035.0000   Y2        1825471.0000
    lmbd93    k1        1.0000000000
    lmbd94    X1        -13494193.00   X2        -17608035.00
    lmbd94    X3        -20163487.00   Y3        384486.00000
    lmbd94    Y1        3622996.0000   Y2        1806941.0000
    lmbd94    k1        1.0000000000
    lmbd95    X1        -5158301.000   X2        -4946983.000
    lmbd95    X3        -9017122.000   Y3        131209.00000
    lmbd95    Y1        2108090.0000   Y2        1788627.0000
    lmbd95    k1        1.0000000000
    lmbd96    X1        -3614193.000   X2        -68643885.00
    lmbd96    X3        -88389941.00   Y3        302532.00000
    lmbd96    Y1        2624972.0000   Y2        1748671.0000
    lmbd96    k1        1.0000000000
    lmbd97    X1        -10734368.00   X2        -14977367.00
    lmbd97    X3        -24113927.00   Y3        34821.000000
    lmbd97    Y1        4294141.0000   Y2        1746810.0000
    lmbd97    k1        1.0000000000
    lmbd98    X1        -1577936.000   X2        -3371386.000
    lmbd98    X3        -7129476.000   Y3        67423.000000
    lmbd98    Y1        182582.00000   Y2        1734415.0000
    lmbd98    k1        1.0000000000
    lmbd99    X1        -8101624.000   X2        -4013051.000
    lmbd99    X3        -8433105.000   Y3        349217.00000
    lmbd99    Y1        2579453.0000   Y2        1733584.0000
    lmbd99    k1        1.0000000000
    lmbd100   X1        -4862256.000   X2        -4132884.000
    lmbd100   X3        -3683429.000   Y3        1150823.0000
    lmbd100   Y1        1178805.0000   Y2        1730408.0000
    lmbd100   k1        1.0000000000
    lmbd101   X1        -5101736.000   X2        -7711726.000
    lmbd101   X3        -9234975.000   Y3        1156300.0000
    lmbd101   Y1        1147185.0000   Y2        1670371.0000
    lmbd101   k1        1.0000000000
    lmbd102   X1        -167692.0000   X2        -195103.0000
    lmbd102   X3        -1006574.000   Y3        416547.00000
    lmbd102   Y1        160625.00000   Y2        1618200.0000
    lmbd102   k1        1.0000000000
    lmbd103   X1        -11090002.00   X2        -10931200.00
    lmbd103   X3        -18236520.00   Y3        232372.00000
    lmbd103   Y1        5500449.0000   Y2        1594696.0000
    lmbd103   k1        1.0000000000
    lmbd104   X1        -3710110.000   X2        -2071974.000
    lmbd104   X3        -5020521.000   Y3        466201.00000
    lmbd104   Y1        726733.00000   Y2        1580733.0000
    lmbd104   k1        1.0000000000
    lmbd105   X1        -4592544.000   X2        -15789206.00
    lmbd105   X3        -21923172.00   Y3        71610.000000
    lmbd105   Y1        4558389.0000   Y2        1543765.0000
    lmbd105   k1        1.0000000000
    lmbd106   X1        -14083133.00   X2        -29983588.00
    lmbd106   X3        -32120827.00   Y3        408362.00000
    lmbd106   Y1        5935847.0000   Y2        1535573.0000
    lmbd106   k1        1.0000000000
    lmbd107   X1        -13047768.00   X2        -4947021.000
    lmbd107   X3        -13753026.00   Y3        717736.00000
    lmbd107   Y1        1534181.0000   Y2        1518385.0000
    lmbd107   k1        1.0000000000
    lmbd108   X1        -26942315.00   X2        -14642375.00
    lmbd108   X3        -28290628.00   Y3        1361933.0000
    lmbd108   Y1        11514252.000   Y2        1509359.0000
    lmbd108   k1        1.0000000000
    lmbd109   X1        -13822656.00   X2        -9719504.000
    lmbd109   X3        -22241934.00   Y3        418367.00000
    lmbd109   Y1        4143866.0000   Y2        1441325.0000
    lmbd109   k1        1.0000000000
    lmbd110   X1        -9456118.000   X2        -10856869.00
    lmbd110   X3        -14169638.00   Y3        823667.00000
    lmbd110   Y1        1481130.0000   Y2        1428657.0000
    lmbd110   k1        1.0000000000
    lmbd111   X1        -11801294.00   X2        -49037933.00
    lmbd111   X3        -70306679.00   Y3        900724.00000
    lmbd111   Y1        3486363.0000   Y2        1417170.0000
    lmbd111   k1        1.0000000000
    lmbd112   X1        -13204212.00   X2        -6509621.000
    lmbd112   X3        -11353673.00   Y3        449908.00000
    lmbd112   Y1        5736259.0000   Y2        1395715.0000
    lmbd112   k1        1.0000000000
    lmbd113   X1        -7543620.000   X2        -6881113.000
    lmbd113   X3        -9764763.000   Y3        338820.00000
    lmbd113   Y1        4332821.0000   Y2        1388755.0000
    lmbd113   k1        1.0000000000
    lmbd114   X1        -3521023.000   X2        -6376072.000
    lmbd114   X3        -9388745.000   Y3        191910.00000
    lmbd114   Y1        380499.00000   Y2        1377811.0000
    lmbd114   k1        1.0000000000
    lmbd115   X1        -5941714.000   X2        -7722732.000
    lmbd115   X3        -8353286.000   Y3        236899.00000
    lmbd115   Y1        4631193.0000   Y2        1376603.0000
    lmbd115   k1        1.0000000000
    lmbd116   X1        -1224776.000   X2        -1921687.000
    lmbd116   X3        -4807276.000   Y3        17472.000000
    lmbd116   Y1        984249.00000   Y2        1357895.0000
    lmbd116   k1        1.0000000000
    lmbd117   X1        -197608.0000   X2        -204812.0000
    lmbd117   X3        -2612498.000   Y3        28278.000000
    lmbd117   Y1        569635.00000   Y2        1346079.0000
    lmbd117   k1        1.0000000000
    lmbd118   X1        -10877657.00   X2        -20257700.00
    lmbd118   X3        -27661424.00   Y3        84985.000000
    lmbd118   Y1        4812181.0000   Y2        1343801.0000
    lmbd118   k1        1.0000000000
    lmbd119   X1        -6092746.000   X2        -2570650.000
    lmbd119   X3        -7179605.000   Y3        450431.00000
    lmbd119   Y1        2302978.0000   Y2        1337759.0000
    lmbd119   k1        1.0000000000
    lmbd120   X1        -5531141.000   X2        -2714588.000
    lmbd120   X3        -4682748.000   Y3        164695.00000
    lmbd120   Y1        978780.00000   Y2        1337177.0000
    lmbd120   k1        1.0000000000
    lmbd121   X1        -720002.0000   X2        -456560.0000
    lmbd121   X3        -2766328.000   Y3        157123.00000
    lmbd121   Y1        677277.00000   Y2        1331903.0000
    lmbd121   k1        1.0000000000
    lmbd122   X1        -3500377.000   X2        -22916873.00
    lmbd122   X3        -26615490.00   Y3        79499.000000
    lmbd122   Y1        3766713.0000   Y2        1308073.0000
    lmbd122   k1        1.0000000000
    lmbd123   X1        -14193794.00   X2        -19393314.00
    lmbd123   X3        -23760362.00   Y3        840107.00000
    lmbd123   Y1        2704619.0000   Y2        1276656.0000
    lmbd123   k1        1.0000000000
    lmbd124   X1        -2956651.000   X2        -1651605.000
    lmbd124   X3        -3115305.000   Y3        27515.000000
    lmbd124   Y1        1644362.0000   Y2        1259915.0000
    lmbd124   k1        1.0000000000
    lmbd125   X1        -2896382.000   X2        -2806803.000
    lmbd125   X3        -7899608.000   Y3        46121.000000
    lmbd125   Y1        375026.00000   Y2        1239938.0000
    lmbd125   k1        1.0000000000
    lmbd126   X1        -931670.0000   X2        -340663.0000
    lmbd126   X3        -3277294.000   Y3        20769.000000
    lmbd126   Y1        296713.00000   Y2        1237590.0000
    lmbd126   k1        1.0000000000
    lmbd127   X1        -3824988.000   X2        -3528815.000
    lmbd127   X3        -2843376.000   Y3        376595.00000
    lmbd127   Y1        3087644.0000   Y2        1215734.0000
    lmbd127   k1        1.0000000000
    lmbd128   X1        -9197019.000   X2        -9736266.000
    lmbd128   X3        -11870375.00   Y3        776482.00000
    lmbd128   Y1        3740079.0000   Y2        1212460.0000
    lmbd128   k1        1.0000000000
    lmbd129   X1        -1940958.000   X2        -5083495.000
    lmbd129   X3        -7025754.000   Y3        12149.000000
    lmbd129   Y1        2827714.0000   Y2        1205228.0000
    lmbd129   k1        1.0000000000
    lmbd130   X1        -5291111.000   X2        -6763625.000
    lmbd130   X3        -10728710.00   Y3        724068.00000
    lmbd130   Y1        2131376.0000   Y2        1198543.0000
    lmbd130   k1        1.0000000000
    lmbd131   X1        -7108557.000   X2        -8053494.000
    lmbd131   X3        -9946533.000   Y3        630293.00000
    lmbd131   Y1        1042154.0000   Y2        1168488.0000
    lmbd131   k1        1.0000000000
    lmbd132   X1        -1718249.000   X2        -2043472.000
    lmbd132   X3        -4092172.000   Y3        4063.0000000
    lmbd132   Y1        161874.00000   Y2        1168361.0000
    lmbd132   k1        1.0000000000
    lmbd133   X1        -2438899.000   X2        -3165396.000
    lmbd133   X3        -4570028.000   Y3        848537.00000
    lmbd133   Y1        617946.00000   Y2        1156352.0000
    lmbd133   k1        1.0000000000
    lmbd134   X1        -14337876.00   X2        -15185265.00
    lmbd134   X3        -18552215.00   Y3        931179.00000
    lmbd134   Y1        10602101.000   Y2        1154792.0000
    lmbd134   k1        1.0000000000
    lmbd135   X1        -4804318.000   X2        -59716569.00
    lmbd135   X3        -66156613.00   Y3        3136493.0000
    lmbd135   Y1        6120049.0000   Y2        1154713.0000
    lmbd135   k1        1.0000000000
    lmbd136   X1        -7994908.000   X2        -5100494.000
    lmbd136   X3        -8127083.000   Y3        355935.00000
    lmbd136   Y1        2877091.0000   Y2        1136959.0000
    lmbd136   k1        1.0000000000
    lmbd137   X1        -12458568.00   X2        -7923963.000
    lmbd137   X3        -13396928.00   Y3        1063830.0000
    lmbd137   Y1        2923985.0000   Y2        1122711.0000
    lmbd137   k1        1.0000000000
    lmbd138   X1        -1029779.000   X2        -11754613.00
    lmbd138   X3        -13983510.00   Y3        165051.00000
    lmbd138   Y1        375947.00000   Y2        1120213.0000
    lmbd138   k1        1.0000000000
    lmbd139   X1        -563960.0000   X2        -7031169.000
    lmbd139   X3        -8881023.000   Y3        89667.000000
    lmbd139   Y1        869838.00000   Y2        1104526.0000
    lmbd139   k1        1.0000000000
    lmbd140   X1        -11384096.00   X2        -12550872.00
    lmbd140   X3        -20332126.00   Y3        1349363.0000
    lmbd140   Y1        5695586.0000   Y2        1087996.0000
    lmbd140   k1        1.0000000000
    lmbd141   X1        -4660669.000   X2        -3151852.000
    lmbd141   X3        -5208005.000   Y3        189313.00000
    lmbd141   Y1        1576947.0000   Y2        1083896.0000
    lmbd141   k1        1.0000000000
    lmbd142   X1        -2894709.000   X2        -6213438.000
    lmbd142   X3        -10927510.00   Y3        102158.00000
    lmbd142   Y1        388311.00000   Y2        1052449.0000
    lmbd142   k1        1.0000000000
    lmbd143   X1        -4131967.000   X2        -638323.0000
    lmbd143   X3        -3648739.000   Y3        69111.000000
    lmbd143   Y1        102618.00000   Y2        1047522.0000
    lmbd143   k1        1.0000000000
    lmbd144   X1        -14277069.00   X2        -32599450.00
    lmbd144   X3        -43785256.00   Y3        616071.00000
    lmbd144   Y1        2729437.0000   Y2        1034081.0000
    lmbd144   k1        1.0000000000
    lmbd145   X1        -5828174.000   X2        -7388352.000
    lmbd145   X3        -8190764.000   Y3        266274.00000
    lmbd145   Y1        2465114.0000   Y2        1032780.0000
    lmbd145   k1        1.0000000000
    lmbd146   X1        -10250288.00   X2        -15827103.00
    lmbd146   X3        -20075268.00   Y3        182751.00000
    lmbd146   Y1        1437942.0000   Y2        1016479.0000
    lmbd146   k1        1.0000000000
    lmbd147   X1        -4931266.000   X2        -7039595.000
    lmbd147   X3        -7417857.000   Y3        66873.000000
    lmbd147   Y1        292720.00000   Y2        996722.00000
    lmbd147   k1        1.0000000000
    lmbd148   X1        -11321941.00   X2        -15968752.00
    lmbd148   X3        -30290379.00   Y3        260299.00000
    lmbd148   Y1        6124095.0000   Y2        992471.00000
    lmbd148   k1        1.0000000000
    lmbd149   X1        -8478644.000   X2        -13597289.00
    lmbd149   X3        -17398674.00   Y3        2666598.0000
    lmbd149   Y1        683343.00000   Y2        990272.00000
    lmbd149   k1        1.0000000000
    lmbd150   X1        -5935617.000   X2        -4446345.000
    lmbd150   X3        -7165609.000   Y3        454375.00000
    lmbd150   Y1        1274720.0000   Y2        986377.00000
    lmbd150   k1        1.0000000000
    lmbd151   X1        -15822746.00   X2        -9008298.000
    lmbd151   X3        -16348149.00   Y3        1312529.0000
    lmbd151   Y1        7994898.0000   Y2        973741.00000
    lmbd151   k1        1.0000000000
    lmbd152   X1        -7456007.000   X2        -5886427.000
    lmbd152   X3        -10398571.00   Y3        1497209.0000
    lmbd152   Y1        2217351.0000   Y2        965200.00000
    lmbd152   k1        1.0000000000
    lmbd153   X1        -6451347.000   X2        -4018441.000
    lmbd153   X3        -7314824.000   Y3        515519.00000
    lmbd153   Y1        1133794.0000   Y2        943288.00000
    lmbd153   k1        1.0000000000
    lmbd154   X1        -2849612.000   X2        -1487713.000
    lmbd154   X3        -5014876.000   Y3        82020.000000
    lmbd154   Y1        1606984.0000   Y2        938064.00000
    lmbd154   k1        1.0000000000
    lmbd155   X1        -12771016.00   X2        -248.0000000
    lmbd155   X3        -4702563.000   Y3        1756.0000000
    lmbd155   Y1        5521256.0000   Y2        932840.00000
    lmbd155   k1        1.0000000000
    lmbd156   X1        -4655064.000   X2        -3796156.000
    lmbd156   X3        -4004264.000   Y3        1468871.0000
    lmbd156   Y1        1207514.0000   Y2        910101.00000
    lmbd156   k1        1.0000000000
    lmbd157   X1        -1230975.000   X2        -340738.0000
    lmbd157   X3        -1833075.000   Y3        229837.00000
    lmbd157   Y1        686748.00000   Y2        892327.00000
    lmbd157   k1        1.0000000000
    lmbd158   X1        -919809.0000   X2        -24837.00000
    lmbd158   X3        -2296856.000   Y3        6047.0000000
    lmbd158   Y1        583536.00000   Y2        885024.00000
    lmbd158   k1        1.0000000000
    lmbd159   X1        -2853194.000   X2        -3232083.000
    lmbd159   X3        -5056434.000   Y3        160014.00000
    lmbd159   Y1        531296.00000   Y2        879132.00000
    lmbd159   k1        1.0000000000
    lmbd160   X1        -187035.0000   X2        -1030549.000
    lmbd160   X3        -2183861.000   Y3        875.00000000
    lmbd160   Y1        28288.000000   Y2        872403.00000
    lmbd160   k1        1.0000000000
    lmbd161   X1        -2339111.000   X2        -824429.0000
    lmbd161   X3        -5186547.000   Y3        83548.000000
    lmbd161   Y1        1052368.0000   Y2        867638.00000
    lmbd161   k1        1.0000000000
    lmbd162   X1        -1519985.000   X2        -1692781.000
    lmbd162   X3        -3274189.000   Y3        24578.000000
    lmbd162   Y1        658645.00000   Y2        867120.00000
    lmbd162   k1        1.0000000000
    lmbd163   X1        -6297841.000   X2        -6304958.000
    lmbd163   X3        -14640075.00   Y3        14155.000000
    lmbd163   Y1        619047.00000   Y2        862604.00000
    lmbd163   k1        1.0000000000
    lmbd164   X1        -10399585.00   X2        -14180211.00
    lmbd164   X3        -17861436.00   Y3        44549.000000
    lmbd164   Y1        8865696.0000   Y2        853406.00000
    lmbd164   k1        1.0000000000
    lmbd165   X1        -9022917.000   X2        -1601964.000
    lmbd165   X3        -12645077.00   Y3        87475.000000
    lmbd165   Y1        2580153.0000   Y2        847479.00000
    lmbd165   k1        1.0000000000
    lmbd166   X1        -2439771.000   X2        -5669722.000
    lmbd166   X3        -7017657.000   Y3        157152.00000
    lmbd166   Y1        2301879.0000   Y2        843914.00000
    lmbd166   k1        1.0000000000
    lmbd167   X1        -717439.0000   X2        -3114360.000
    lmbd167   X3        -5607246.000   Y3        32703.000000
    lmbd167   Y1        426502.00000   Y2        818090.00000
    lmbd167   k1        1.0000000000
    lmbd168   X1        -9932517.000   X2        -5244125.000
    lmbd168   X3        -9453883.000   Y3        190075.00000
    lmbd168   Y1        4422305.0000   Y2        810090.00000
    lmbd168   k1        1.0000000000
    lmbd169   X1        -18288325.00   X2        -64397697.00
    lmbd169   X3        -88941201.00   Y3        424056.00000
    lmbd169   Y1        4081893.0000   Y2        806989.00000
    lmbd169   k1        1.0000000000
    lmbd170   X1        -3148824.000   X2        -4965501.000
    lmbd170   X3        -7097039.000   Y3        27678.000000
    lmbd170   Y1        1697925.0000   Y2        795338.00000
    lmbd170   k1        1.0000000000
    lmbd171   X1        -9165334.000   X2        -9692795.000
    lmbd171   X3        -12012547.00   Y3        390512.00000
    lmbd171   Y1        3607510.0000   Y2        770470.00000
    lmbd171   k1        1.0000000000
    lmbd172   X1        -2022821.000   X2        -1709631.000
    lmbd172   X3        -3490530.000   Y3        18665.000000
    lmbd172   Y1        2890087.0000   Y2        766570.00000
    lmbd172   k1        1.0000000000
    lmbd173   X1        -4486576.000   X2        -7120281.000
    lmbd173   X3        -6663692.000   Y3        42775.000000
    lmbd173   Y1        4494907.0000   Y2        763454.00000
    lmbd173   k1        1.0000000000
    lmbd174   X1        -5943732.000   X2        -6143065.000
    lmbd174   X3        -7848147.000   Y3        238663.00000
    lmbd174   Y1        1985501.0000   Y2        758980.00000
    lmbd174   k1        1.0000000000
    lmbd175   X1        -7845750.000   X2        -3668029.000
    lmbd175   X3        -4351583.000   Y3        737033.00000
    lmbd175   Y1        1518548.0000   Y2        756545.00000
    lmbd175   k1        1.0000000000
    lmbd176   X1        -1316477.000   X2        -3217619.000
    lmbd176   X3        -5331628.000   Y3        24730.000000
    lmbd176   Y1        1529786.0000   Y2        743227.00000
    lmbd176   k1        1.0000000000
    lmbd177   X1        -6340771.000   X2        -6181045.000
    lmbd177   X3        -8064110.000   Y3        749471.00000
    lmbd177   Y1        2466994.0000   Y2        735291.00000
    lmbd177   k1        1.0000000000
    lmbd178   X1        -4810320.000   X2        -3158085.000
    lmbd178   X3        -4323572.000   Y3        450377.00000
    lmbd178   Y1        1075596.0000   Y2        721628.00000
    lmbd178   k1        1.0000000000
    lmbd179   X1        -11069648.00   X2        -9946035.000
    lmbd179   X3        -9573520.000   Y3        713938.00000
    lmbd179   Y1        1363251.0000   Y2        699289.00000
    lmbd179   k1        1.0000000000
    lmbd180   X1        -3788698.000   X2        -2925844.000
    lmbd180   X3        -4779598.000   Y3        727723.00000
    lmbd180   Y1        642034.00000   Y2        695906.00000
    lmbd180   k1        1.0000000000
    lmbd181   X1        -8961339.000   X2        -8451449.000
    lmbd181   X3        -9393993.000   Y3        36709.000000
    lmbd181   Y1        9720781.0000   Y2        692876.00000
    lmbd181   k1        1.0000000000
    lmbd182   X1        -7265220.000   X2        -7774479.000
    lmbd182   X3        -8385120.000   Y3        782403.00000
    lmbd182   Y1        1003151.0000   Y2        687244.00000
    lmbd182   k1        1.0000000000
    lmbd183   X1        -1375076.000   X2        -129081.0000
    lmbd183   X3        -1813243.000   Y3        13921.000000
    lmbd183   Y1        431824.00000   Y2        677550.00000
    lmbd183   k1        1.0000000000
    lmbd184   X1        -3442359.000   X2        -52362699.00
    lmbd184   X3        -57572340.00   Y3        193853.00000
    lmbd184   Y1        3627324.0000   Y2        674802.00000
    lmbd184   k1        1.0000000000
    lmbd185   X1        -4942851.000   X2        -984099.0000
    lmbd185   X3        -4396789.000   Y3        401679.00000
    lmbd185   Y1        1493913.0000   Y2        651745.00000
    lmbd185   k1        1.0000000000
    lmbd186   X1        -12223074.00   X2        -9675877.000
    lmbd186   X3        -14106449.00   Y3        710521.00000
    lmbd186   Y1        1907063.0000   Y2        651502.00000
    lmbd186   k1        1.0000000000
    lmbd187   X1        -1479606.000   X2        -1289224.000
    lmbd187   X3        -2450538.000   Y3        138063.00000
    lmbd187   Y1        226276.00000   Y2        642639.00000
    lmbd187   k1        1.0000000000
    lmbd188   X1        -973816.0000   X2        -154.0000000
    lmbd188   X3        -364754.0000   Y3        49363.000000
    lmbd188   Y1        1159565.0000   Y2        619108.00000
    lmbd188   k1        1.0000000000
    lmbd189   X1        -5211663.000   X2        -3112152.000
    lmbd189   X3        -6956981.000   Y3        479984.00000
    lmbd189   Y1        1214933.0000   Y2        606028.00000
    lmbd189   k1        1.0000000000
    lmbd190   X1        -2810037.000   X2        -4955215.000
    lmbd190   X3        -7896795.000   Y3        140048.00000
    lmbd190   Y1        972700.00000   Y2        602279.00000
    lmbd190   k1        1.0000000000
    lmbd191   X1        -1626256.000   X2        -741907.0000
    lmbd191   X3        -1887025.000   Y3        203287.00000
    lmbd191   Y1        627743.00000   Y2        590489.00000
    lmbd191   k1        1.0000000000
    lmbd192   X1        -2329123.000   X2        -359862.0000
    lmbd192   X3        -2637853.000   Y3        47349.000000
    lmbd192   Y1        711320.00000   Y2        589693.00000
    lmbd192   k1        1.0000000000
    lmbd193   X1        -2892926.000   X2        -1623725.000
    lmbd193   X3        -3041169.000   Y3        459117.00000
    lmbd193   Y1        969130.00000   Y2        583695.00000
    lmbd193   k1        1.0000000000
    lmbd194   X1        -4313888.000   X2        -2842433.000
    lmbd194   X3        -4816661.000   Y3        169375.00000
    lmbd194   Y1        1127449.0000   Y2        576353.00000
    lmbd194   k1        1.0000000000
    lmbd195   X1        -4363723.000   X2        -3488720.000
    lmbd195   X3        -4252918.000   Y3        551100.00000
    lmbd195   Y1        1018768.0000   Y2        561273.00000
    lmbd195   k1        1.0000000000
    lmbd196   X1        -4005391.000   X2        -3220136.000
    lmbd196   X3        -5365622.000   Y3        244682.00000
    lmbd196   Y1        1234795.0000   Y2        534571.00000
    lmbd196   k1        1.0000000000
    lmbd197   X1        -6602517.000   X2        -49202689.00
    lmbd197   X3        -58687620.00   Y3        573993.00000
    lmbd197   Y1        7885914.0000   Y2        534153.00000
    lmbd197   k1        1.0000000000
    lmbd198   X1        -3645867.000   X2        -2233270.000
    lmbd198   X3        -2964756.000   Y3        395898.00000
    lmbd198   Y1        1021145.0000   Y2        532320.00000
    lmbd198   k1        1.0000000000
    lmbd199   X1        -1860773.000   X2        -7366400.000
    lmbd199   X3        -8543907.000   Y3        429111.00000
    lmbd199   Y1        1848406.0000   Y2        528991.00000
    lmbd199   k1        1.0000000000
    MARK0001  'MARKER'                 'INTEND'
RHS
    RHS       Y3        6212616.0000   Y1        223888259.00
    RHS       Y2        91133590.000   k1        1.0000000000
BOUNDS
 FR BND       theta   
 BV BND       lmbd1   
 BV BND       lmbd2   
 BV BND       lmbd3   
 BV BND       lmbd4   
 BV BND       lmbd5   
 BV BND       lmbd6   
 BV BND       lmbd7   
 BV BND       lmbd8   
 BV BND       lmbd9   
 BV BND       lmbd10  
 BV BND       lmbd11  
 BV BND       lmbd12  
 BV BND       lmbd13  
 BV BND       lmbd14  
 BV BND       lmbd15  
 BV BND       lmbd16  
 BV BND       lmbd17  
 BV BND       lmbd18  
 BV BND       lmbd19  
 BV BND       lmbd20  
 BV BND       lmbd21  
 BV BND       lmbd22  
 BV BND       lmbd23  
 BV BND       lmbd24  
 BV BND       lmbd25  
 BV BND       lmbd26  
 BV BND       lmbd27  
 BV BND       lmbd28  
 BV BND       lmbd29  
 BV BND       lmbd30  
 BV BND       lmbd31  
 BV BND       lmbd32  
 BV BND       lmbd33  
 BV BND       lmbd34  
 BV BND       lmbd35  
 BV BND       lmbd36  
 BV BND       lmbd37  
 BV BND       lmbd38  
 BV BND       lmbd39  
 BV BND       lmbd40  
 BV BND       lmbd41  
 BV BND       lmbd42  
 BV BND       lmbd43  
 BV BND       lmbd44  
 BV BND       lmbd45  
 BV BND       lmbd46  
 BV BND       lmbd47  
 BV BND       lmbd48  
 BV BND       lmbd49  
 BV BND       lmbd50  
 BV BND       lmbd51  
 BV BND       lmbd52  
 BV BND       lmbd53  
 BV BND       lmbd54  
 BV BND       lmbd55  
 BV BND       lmbd56  
 BV BND       lmbd57  
 BV BND       lmbd58  
 BV BND       lmbd59  
 BV BND       lmbd60  
 BV BND       lmbd61  
 BV BND       lmbd62  
 BV BND       lmbd63  
 BV BND       lmbd64  
 BV BND       lmbd65  
 BV BND       lmbd66  
 BV BND       lmbd67  
 BV BND       lmbd68  
 BV BND       lmbd69  
 BV BND       lmbd70  
 BV BND       lmbd71  
 BV BND       lmbd72  
 BV BND       lmbd73  
 BV BND       lmbd74  
 BV BND       lmbd75  
 BV BND       lmbd76  
 BV BND       lmbd77  
 BV BND       lmbd78  
 BV BND       lmbd79  
 BV BND       lmbd80  
 BV BND       lmbd81  
 BV BND       lmbd82  
 BV BND       lmbd83  
 BV BND       lmbd84  
 BV BND       lmbd85  
 BV BND       lmbd86  
 BV BND       lmbd87  
 BV BND       lmbd88  
 BV BND       lmbd89  
 BV BND       lmbd90  
 BV BND       lmbd91  
 BV BND       lmbd92  
 BV BND       lmbd93  
 BV BND       lmbd94  
 BV BND       lmbd95  
 BV BND       lmbd96  
 BV BND       lmbd97  
 BV BND       lmbd98  
 BV BND       lmbd99  
 BV BND       lmbd100 
 BV BND       lmbd101 
 BV BND       lmbd102 
 BV BND       lmbd103 
 BV BND       lmbd104 
 BV BND       lmbd105 
 BV BND       lmbd106 
 BV BND       lmbd107 
 BV BND       lmbd108 
 BV BND       lmbd109 
 BV BND       lmbd110 
 BV BND       lmbd111 
 BV BND       lmbd112 
 BV BND       lmbd113 
 BV BND       lmbd114 
 BV BND       lmbd115 
 BV BND       lmbd116 
 BV BND       lmbd117 
 BV BND       lmbd118 
 BV BND       lmbd119 
 BV BND       lmbd120 
 BV BND       lmbd121 
 BV BND       lmbd122 
 BV BND       lmbd123 
 BV BND       lmbd124 
 BV BND       lmbd125 
 BV BND       lmbd126 
 BV BND       lmbd127 
 BV BND       lmbd128 
 BV BND       lmbd129 
 BV BND       lmbd130 
 BV BND       lmbd131 
 BV BND       lmbd132 
 BV BND       lmbd133 
 BV BND       lmbd134 
 BV BND       lmbd135 
 BV BND       lmbd136 
 BV BND       lmbd137 
 BV BND       lmbd138 
 BV BND       lmbd139 
 BV BND       lmbd140 
 BV BND       lmbd141 
 BV BND       lmbd142 
 BV BND       lmbd143 
 BV BND       lmbd144 
 BV BND       lmbd145 
 BV BND       lmbd146 
 BV BND       lmbd147 
 BV BND       lmbd148 
 BV BND       lmbd149 
 BV BND       lmbd150 
 BV BND       lmbd151 
 BV BND       lmbd152 
 BV BND       lmbd153 
 BV BND       lmbd154 
 BV BND       lmbd155 
 BV BND       lmbd156 
 BV BND       lmbd157 
 BV BND       lmbd158 
 BV BND       lmbd159 
 BV BND       lmbd160 
 BV BND       lmbd161 
 BV BND       lmbd162 
 BV BND       lmbd163 
 BV BND       lmbd164 
 BV BND       lmbd165 
 BV BND       lmbd166 
 BV BND       lmbd167 
 BV BND       lmbd168 
 BV BND       lmbd169 
 BV BND       lmbd170 
 BV BND       lmbd171 
 BV BND       lmbd172 
 BV BND       lmbd173 
 BV BND       lmbd174 
 BV BND       lmbd175 
 BV BND       lmbd176 
 BV BND       lmbd177 
 BV BND       lmbd178 
 BV BND       lmbd179 
 BV BND       lmbd180 
 BV BND       lmbd181 
 BV BND       lmbd182 
 BV BND       lmbd183 
 BV BND       lmbd184 
 BV BND       lmbd185 
 BV BND       lmbd186 
 BV BND       lmbd187 
 BV BND       lmbd188 
 BV BND       lmbd189 
 BV BND       lmbd190 
 BV BND       lmbd191 
 BV BND       lmbd192 
 BV BND       lmbd193 
 BV BND       lmbd194 
 BV BND       lmbd195 
 BV BND       lmbd196 
 BV BND       lmbd197 
 BV BND       lmbd198 
 BV BND       lmbd199 
ENDATA
